fifo_sync_tb.vcd
$date
	Thu Aug 28 03:19:00 2025
$end
$version
	Icarus Verilog
$end
$timescale
	1ps
$end
$scope module tb_fifo_sync $end
$var wire 1 ! full $end
$var wire 1 " empty $end
$var wire 8 # dout [7:0] $end
$var wire 4 $ count [3:0] $end
$var parameter 32 % DATA_WIDTH $end
$var parameter 32 & DEPTH $end
$var reg 1 ' clk $end
$var reg 8 ( din [7:0] $end
$var reg 1 ) rd_en $end
$var reg 1 * rst $end
$var reg 1 + wr_en $end
$scope module uut $end
$var wire 1 ' clk $end
$var wire 8 , din [7:0] $end
$var wire 1 ) rd_en $end
$var wire 1 * rst $end
$var wire 1 + wr_en $end
$var wire 1 ! full $end
$var wire 1 " empty $end
$var parameter 32 - DATA_WIDTH $end
$var parameter 32 . DEPTH $end
$var reg 4 / count [3:0] $end
$var reg 8 0 dout [7:0] $end
$var reg 3 1 r_ptr [2:0] $end
$var reg 3 2 w_ptr [2:0] $end
$upscope $end
$upscope $end
$enddefinitions $end
$comment Show the parameter values. $end
$dumpall
b1000 .
b1000 -
b1000 &
b1000 %
$end
#0
$dumpvars
b0 2
b0 1
b0 0
b0 /
b0 ,
0+
1*
0)
b0 (
0'
b0 $
b0 #
1"
0!
$end
#5000
1'
#10000
0'
#15000
1'
0*
#20000
b100100 (
b100100 ,
1+
0'
#25000
0"
b1 $
b1 /
b1 2
1'
#30000
b10000001 (
b10000001 ,
0'
#35000
b10 $
b10 /
b10 2
1'
#40000
b1001 (
b1001 ,
0'
#45000
b11 $
b11 /
b11 2
1'
#50000
b1100011 (
b1100011 ,
0'
#55000
b100 $
b100 /
b100 2
1'
#60000
b1101 (
b1101 ,
0'
#65000
b101 $
b101 /
b101 2
1'
#70000
b10001101 (
b10001101 ,
0'
#75000
b110 $
b110 /
b110 2
1'
#80000
b1100101 (
b1100101 ,
0'
#85000
b111 $
b111 /
b111 2
1'
#90000
b10010 (
b10010 ,
0'
#95000
1!
b1000 $
b1000 /
b0 2
1'
#100000
0+
0'
#105000
1'
#110000
b10101010 (
b10101010 ,
1+
0'
#115000
1'
#120000
0+
0'
#125000
1'
#130000
1)
0'
#135000
0!
b111 $
b111 /
b1 1
b100100 #
b100100 0
1'
#140000
0'
#145000
b110 $
b110 /
b10 1
b10000001 #
b10000001 0
1'
#150000
0'
#155000
b101 $
b101 /
b11 1
b1001 #
b1001 0
1'
#160000
0'
#165000
b100 $
b100 /
b100 1
b1100011 #
b1100011 0
1'
#170000
0'
#175000
b11 $
b11 /
b101 1
b1101 #
b1101 0
1'
#180000
0'
#185000
b10 $
b10 /
b110 1
b10001101 #
b10001101 0
1'
#190000
0'
#195000
b1 $
b1 /
b111 1
b1100101 #
b1100101 0
1'
#200000
0'
#205000
1"
b0 $
b0 /
b0 1
b10010 #
b10010 0
1'
#210000
0)
0'
#215000
1'
#220000
1)
0'
#225000
1'
#230000
0)
0'
